/Users/danielkorczynski/Developer/JAVA/eclipse_java/Ryanair/src/test/java/com/dko/ryanair/pageobjects/BookingExtrasPage.java
/Users/danielkorczynski/Developer/JAVA/eclipse_java/Ryanair/src/test/java/com/dko/ryanair/pageobjects/BookingPaymentPage.java
/Users/danielkorczynski/Developer/JAVA/eclipse_java/Ryanair/src/test/java/com/dko/ryanair/pageobjects/BookingHomePage.java
/Users/danielkorczynski/Developer/JAVA/eclipse_java/Ryanair/src/test/java/com/dko/ryanair/featureRunners/BasicTests_JUnit.java
/Users/danielkorczynski/Developer/JAVA/eclipse_java/Ryanair/src/test/java/com/dko/ryanair/pageobjects/HomePage.java
/Users/danielkorczynski/Developer/JAVA/eclipse_java/Ryanair/src/test/java/com/dko/ryanair/tests/BookingUpTest.java
/Users/danielkorczynski/Developer/JAVA/eclipse_java/Ryanair/src/test/java/com/dko/ryanair/tests/FunctionalTest.java
/Users/danielkorczynski/Developer/JAVA/eclipse_java/Ryanair/src/test/java/com/dko/ryanair/stepDefinitions/BookingUpSD.java
/Users/danielkorczynski/Developer/JAVA/eclipse_java/Ryanair/src/test/java/com/dko/ryanair/pageobjects/PageObject.java
